{
  "project_info": {
    "project_number": "616468906894",
    "firebase_url": "https://questzone-73731684.firebaseio.com",
    "project_id": "questzone-73731684",
    "storage_bucket": "questzone-73731684.appspot.com"
  },
  "client": [
    {
      "client_info": {
        "mobilesdk_app_id": "1:616468906894:android:ba7ebb9d50cc01fb105adf",
        "android_client_info": {
          "package_name": "com.PufferFish.QuestZone"
        }
      },
      "oauth_client": [
        {
          "client_id": "616468906894-kdipts4mtpfn10bgvq22q6111vrveig6.apps.googleusercontent.com",
          "client_type": 1,
          "android_info": {
            "package_name": "com.PufferFish.QuestZone",
            "certificate_hash": "6e52d821d693db3c525dbb7127f343c9fcf4464d"
          }
        },
        {
          "client_id": "616468906894-ra99oca44a6ktl62710tk59brr95q07d.apps.googleusercontent.com",
          "client_type": 3
        }
      ],
      "api_key": [
        {
          "current_key": "AIzaSyBqiMSxVxqcCgyp0iVGii28A8wZp_m8-U4"
        }
      ],
      "services": {
        "appinvite_service": {
          "other_platform_oauth_client": [
            {
              "client_id": "616468906894-ra99oca44a6ktl62710tk59brr95q07d.apps.googleusercontent.com",
              "client_type": 3
            }
          ]
        }
      }
    }
  ],
  "configuration_version": "1"
}