%YAML 1.1
%TAG !u! tag:unity3d.com,2011:
--- !u!1045 &1
EditorBuildSettings:
  m_ObjectHideFlags: 0
  serializedVersion: 2
  m_Scenes:
  - enabled: 0
    path: Assets/Scenes/SampleScene.unity
    guid: a41a7803c390f1e4f80bdc57dd6f6033
  - enabled: 1
    path: Assets/Scenes/MainMenu.unity
    guid: 2542c1e281ca8384a9400eaf2a3b4989
  - enabled: 1
    path: Assets/Scenes/AddMarker.unity
    guid: 143c75fa01c26da47abfbece1761782f
  m_configObjects: {}
